%YAML 1.1
%TAG !u! tag:unity3d.com,2011:
--- !u!114 &11400000
MonoBehaviour:
  m_ObjectHideFlags: 0
  m_CorrespondingSourceObject: {fileID: 0}
  m_PrefabInstance: {fileID: 0}
  m_PrefabAsset: {fileID: 0}
  m_GameObject: {fileID: 0}
  m_Enabled: 1
  m_EditorHideFlags: 0
  m_Script: {fileID: 11500000, guid: 37fe812d709b57d4dace93a88cfdd38c, type: 3}
  m_Name: Cooked Cylinder
  m_EditorClassIdentifier: 
  type: 0
  prefab: {fileID: 7657763333322196914, guid: ab3a312f0466a6c4bb96759788b28e4a, type: 3}
  state: 1
  sellPrice: 2
