%YAML 1.1
%TAG !u! tag:unity3d.com,2011:
--- !u!114 &11400000
MonoBehaviour:
  m_ObjectHideFlags: 0
  m_CorrespondingSourceObject: {fileID: 0}
  m_PrefabInstance: {fileID: 0}
  m_PrefabAsset: {fileID: 0}
  m_GameObject: {fileID: 0}
  m_Enabled: 1
  m_EditorHideFlags: 0
  m_Script: {fileID: 11500000, guid: daff399e9ddd8c04ca29af2168bb1481, type: 3}
  m_Name: Raw Sphere
  m_EditorClassIdentifier: 
  type: 0
  prefab: {fileID: 1816578165822269670, guid: 89e5836b6f78e9f459d6bb0a35c5bcb3, type: 3}
  state: 0
  sellPrice: -1
  cookedData: {fileID: 11400000, guid: f5393d73de0d9874fb797a7edeaeef57, type: 2}
