%YAML 1.1
%TAG !u! tag:unity3d.com,2011:
--- !u!114 &11400000
MonoBehaviour:
  m_ObjectHideFlags: 0
  m_CorrespondingSourceObject: {fileID: 0}
  m_PrefabInstance: {fileID: 0}
  m_PrefabAsset: {fileID: 0}
  m_GameObject: {fileID: 0}
  m_Enabled: 1
  m_EditorHideFlags: 0
  m_Script: {fileID: 11500000, guid: daff399e9ddd8c04ca29af2168bb1481, type: 3}
  m_Name: Raw Capsule
  m_EditorClassIdentifier: 
  type: 0
  prefab: {fileID: 5838904048684048478, guid: 06742d88e893aa441b610c62953d791f, type: 3}
  state: 0
  sellPrice: -1
  cookedData: {fileID: 11400000, guid: 414624bf18ae8da4fa6b44189bfc8c3f, type: 2}
